^E:\PROG\2КУРС\ООП\GIT_LAB2\LAB2\LAB2.CPP
C:\WINDOWS\GLOBALIZATION\SORTING\SORTDEFAULT.NLS
E:\PROG\MICROSOFT\NEW\VC\TOOLS\MSVC\14.29.30133\BIN\HOSTX86\X64\1049\CLUI.DLL
C:\WINDOWS\SYSTEM32\TZRES.DLL
E:\PROG\MICROSOFT\NEW\VC\TOOLS\MSVC\14.29.30133\INCLUDE\IOSTREAM
E:\PROG\MICROSOFT\NEW\VC\TOOLS\MSVC\14.29.30133\INCLUDE\YVALS_CORE.H
E:\PROG\MICROSOFT\NEW\VC\TOOLS\MSVC\14.29.30133\INCLUDE\VCRUNTIME.H
E:\PROG\MICROSOFT\NEW\VC\TOOLS\MSVC\14.29.30133\INCLUDE\SAL.H
E:\PROG\MICROSOFT\NEW\VC\TOOLS\MSVC\14.29.30133\INCLUDE\CONCURRENCYSAL.H
E:\PROG\MICROSOFT\NEW\VC\TOOLS\MSVC\14.29.30133\INCLUDE\VADEFS.H
E:\PROG\MICROSOFT\NEW\VC\TOOLS\MSVC\14.29.30133\INCLUDE\XKEYCHECK.H
E:\PROG\MICROSOFT\NEW\VC\TOOLS\MSVC\14.29.30133\INCLUDE\ISTREAM
E:\PROG\MICROSOFT\NEW\VC\TOOLS\MSVC\14.29.30133\INCLUDE\OSTREAM
E:\PROG\MICROSOFT\NEW\VC\TOOLS\MSVC\14.29.30133\INCLUDE\IOS
E:\PROG\MICROSOFT\NEW\VC\TOOLS\MSVC\14.29.30133\INCLUDE\XLOCNUM
E:\PROG\MICROSOFT\NEW\VC\TOOLS\MSVC\14.29.30133\INCLUDE\CLIMITS
E:\PROG\MICROSOFT\NEW\VC\TOOLS\MSVC\14.29.30133\INCLUDE\LIMITS.H
E:\PROG\MICROSOFT\NEW\VC\TOOLS\MSVC\14.29.30133\INCLUDE\CMATH
E:\PROG\MICROSOFT\NEW\VC\TOOLS\MSVC\14.29.30133\INCLUDE\YVALS.H
E:\WINDOWS KITS\10\INCLUDE\10.0.19041.0\UCRT\CRTDBG.H
E:\WINDOWS KITS\10\INCLUDE\10.0.19041.0\UCRT\CORECRT.H
E:\PROG\MICROSOFT\NEW\VC\TOOLS\MSVC\14.29.30133\INCLUDE\VCRUNTIME_NEW_DEBUG.H
E:\PROG\MICROSOFT\NEW\VC\TOOLS\MSVC\14.29.30133\INCLUDE\VCRUNTIME_NEW.H
E:\PROG\MICROSOFT\NEW\VC\TOOLS\MSVC\14.29.30133\INCLUDE\CRTDEFS.H
E:\PROG\MICROSOFT\NEW\VC\TOOLS\MSVC\14.29.30133\INCLUDE\USE_ANSI.H
E:\PROG\MICROSOFT\NEW\VC\TOOLS\MSVC\14.29.30133\INCLUDE\CSTDLIB
E:\WINDOWS KITS\10\INCLUDE\10.0.19041.0\UCRT\MATH.H
E:\WINDOWS KITS\10\INCLUDE\10.0.19041.0\UCRT\CORECRT_MATH.H
E:\WINDOWS KITS\10\INCLUDE\10.0.19041.0\UCRT\STDLIB.H
E:\WINDOWS KITS\10\INCLUDE\10.0.19041.0\UCRT\CORECRT_MALLOC.H
E:\WINDOWS KITS\10\INCLUDE\10.0.19041.0\UCRT\CORECRT_SEARCH.H
E:\WINDOWS KITS\10\INCLUDE\10.0.19041.0\UCRT\STDDEF.H
E:\WINDOWS KITS\10\INCLUDE\10.0.19041.0\UCRT\CORECRT_WSTDLIB.H
E:\PROG\MICROSOFT\NEW\VC\TOOLS\MSVC\14.29.30133\INCLUDE\XTR1COMMON
E:\PROG\MICROSOFT\NEW\VC\TOOLS\MSVC\14.29.30133\INCLUDE\INTRIN0.H
E:\PROG\MICROSOFT\NEW\VC\TOOLS\MSVC\14.29.30133\INCLUDE\INTRIN0.INL.H
E:\PROG\MICROSOFT\NEW\VC\TOOLS\MSVC\14.29.30133\INCLUDE\CSTDIO
E:\WINDOWS KITS\10\INCLUDE\10.0.19041.0\UCRT\STDIO.H
E:\WINDOWS KITS\10\INCLUDE\10.0.19041.0\UCRT\CORECRT_WSTDIO.H
E:\WINDOWS KITS\10\INCLUDE\10.0.19041.0\UCRT\CORECRT_STDIO_CONFIG.H
E:\PROG\MICROSOFT\NEW\VC\TOOLS\MSVC\14.29.30133\INCLUDE\ITERATOR
E:\PROG\MICROSOFT\NEW\VC\TOOLS\MSVC\14.29.30133\INCLUDE\IOSFWD
E:\PROG\MICROSOFT\NEW\VC\TOOLS\MSVC\14.29.30133\INCLUDE\CSTRING
E:\WINDOWS KITS\10\INCLUDE\10.0.19041.0\UCRT\STRING.H
E:\WINDOWS KITS\10\INCLUDE\10.0.19041.0\UCRT\CORECRT_MEMORY.H
E:\WINDOWS KITS\10\INCLUDE\10.0.19041.0\UCRT\CORECRT_MEMCPY_S.H
E:\WINDOWS KITS\10\INCLUDE\10.0.19041.0\UCRT\ERRNO.H
E:\PROG\MICROSOFT\NEW\VC\TOOLS\MSVC\14.29.30133\INCLUDE\VCRUNTIME_STRING.H
E:\WINDOWS KITS\10\INCLUDE\10.0.19041.0\UCRT\CORECRT_WSTRING.H
E:\PROG\MICROSOFT\NEW\VC\TOOLS\MSVC\14.29.30133\INCLUDE\CWCHAR
E:\WINDOWS KITS\10\INCLUDE\10.0.19041.0\UCRT\WCHAR.H
E:\WINDOWS KITS\10\INCLUDE\10.0.19041.0\UCRT\CORECRT_WCONIO.H
E:\WINDOWS KITS\10\INCLUDE\10.0.19041.0\UCRT\CORECRT_WCTYPE.H
E:\WINDOWS KITS\10\INCLUDE\10.0.19041.0\UCRT\CORECRT_WDIRECT.H
E:\WINDOWS KITS\10\INCLUDE\10.0.19041.0\UCRT\CORECRT_WIO.H
E:\WINDOWS KITS\10\INCLUDE\10.0.19041.0\UCRT\CORECRT_SHARE.H
E:\WINDOWS KITS\10\INCLUDE\10.0.19041.0\UCRT\CORECRT_WPROCESS.H
E:\WINDOWS KITS\10\INCLUDE\10.0.19041.0\UCRT\CORECRT_WTIME.H
E:\WINDOWS KITS\10\INCLUDE\10.0.19041.0\UCRT\SYS\STAT.H
E:\WINDOWS KITS\10\INCLUDE\10.0.19041.0\UCRT\SYS\TYPES.H
E:\PROG\MICROSOFT\NEW\VC\TOOLS\MSVC\14.29.30133\INCLUDE\XSTDDEF
E:\PROG\MICROSOFT\NEW\VC\TOOLS\MSVC\14.29.30133\INCLUDE\CSTDDEF
E:\PROG\MICROSOFT\NEW\VC\TOOLS\MSVC\14.29.30133\INCLUDE\INITIALIZER_LIST
E:\PROG\MICROSOFT\NEW\VC\TOOLS\MSVC\14.29.30133\INCLUDE\XUTILITY
E:\PROG\MICROSOFT\NEW\VC\TOOLS\MSVC\14.29.30133\INCLUDE\UTILITY
E:\PROG\MICROSOFT\NEW\VC\TOOLS\MSVC\14.29.30133\INCLUDE\TYPE_TRAITS
E:\PROG\MICROSOFT\NEW\VC\TOOLS\MSVC\14.29.30133\INCLUDE\CSTDINT
E:\PROG\MICROSOFT\NEW\VC\TOOLS\MSVC\14.29.30133\INCLUDE\STDINT.H
E:\PROG\MICROSOFT\NEW\VC\TOOLS\MSVC\14.29.30133\INCLUDE\STREAMBUF
E:\PROG\MICROSOFT\NEW\VC\TOOLS\MSVC\14.29.30133\INCLUDE\XIOSBASE
E:\WINDOWS KITS\10\INCLUDE\10.0.19041.0\UCRT\SHARE.H
E:\PROG\MICROSOFT\NEW\VC\TOOLS\MSVC\14.29.30133\INCLUDE\SYSTEM_ERROR
E:\PROG\MICROSOFT\NEW\VC\TOOLS\MSVC\14.29.30133\INCLUDE\__MSVC_SYSTEM_ERROR_ABI.HPP
E:\PROG\MICROSOFT\NEW\VC\TOOLS\MSVC\14.29.30133\INCLUDE\CERRNO
E:\PROG\MICROSOFT\NEW\VC\TOOLS\MSVC\14.29.30133\INCLUDE\STDEXCEPT
E:\PROG\MICROSOFT\NEW\VC\TOOLS\MSVC\14.29.30133\INCLUDE\EXCEPTION
E:\WINDOWS KITS\10\INCLUDE\10.0.19041.0\UCRT\MALLOC.H
E:\PROG\MICROSOFT\NEW\VC\TOOLS\MSVC\14.29.30133\INCLUDE\VCRUNTIME_EXCEPTION.H
E:\PROG\MICROSOFT\NEW\VC\TOOLS\MSVC\14.29.30133\INCLUDE\EH.H
E:\WINDOWS KITS\10\INCLUDE\10.0.19041.0\UCRT\CORECRT_TERMINATE.H
E:\PROG\MICROSOFT\NEW\VC\TOOLS\MSVC\14.29.30133\INCLUDE\XSTRING
E:\PROG\MICROSOFT\NEW\VC\TOOLS\MSVC\14.29.30133\INCLUDE\XMEMORY
E:\PROG\MICROSOFT\NEW\VC\TOOLS\MSVC\14.29.30133\INCLUDE\LIMITS
E:\PROG\MICROSOFT\NEW\VC\TOOLS\MSVC\14.29.30133\INCLUDE\CFLOAT
E:\WINDOWS KITS\10\INCLUDE\10.0.19041.0\UCRT\FLOAT.H
E:\PROG\MICROSOFT\NEW\VC\TOOLS\MSVC\14.29.30133\INCLUDE\ISA_AVAILABILITY.H
E:\PROG\MICROSOFT\NEW\VC\TOOLS\MSVC\14.29.30133\INCLUDE\NEW
E:\PROG\MICROSOFT\NEW\VC\TOOLS\MSVC\14.29.30133\INCLUDE\XATOMIC.H
E:\PROG\MICROSOFT\NEW\VC\TOOLS\MSVC\14.29.30133\INCLUDE\XCALL_ONCE.H
E:\PROG\MICROSOFT\NEW\VC\TOOLS\MSVC\14.29.30133\INCLUDE\XERRC.H
E:\PROG\MICROSOFT\NEW\VC\TOOLS\MSVC\14.29.30133\INCLUDE\ATOMIC
E:\PROG\MICROSOFT\NEW\VC\TOOLS\MSVC\14.29.30133\INCLUDE\XTHREADS.H
E:\PROG\MICROSOFT\NEW\VC\TOOLS\MSVC\14.29.30133\INCLUDE\XTIMEC.H
E:\PROG\MICROSOFT\NEW\VC\TOOLS\MSVC\14.29.30133\INCLUDE\CTIME
E:\WINDOWS KITS\10\INCLUDE\10.0.19041.0\UCRT\TIME.H
E:\PROG\MICROSOFT\NEW\VC\TOOLS\MSVC\14.29.30133\INCLUDE\XLOCALE
E:\PROG\MICROSOFT\NEW\VC\TOOLS\MSVC\14.29.30133\INCLUDE\MEMORY
E:\PROG\MICROSOFT\NEW\VC\TOOLS\MSVC\14.29.30133\INCLUDE\TYPEINFO
E:\PROG\MICROSOFT\NEW\VC\TOOLS\MSVC\14.29.30133\INCLUDE\VCRUNTIME_TYPEINFO.H
E:\PROG\MICROSOFT\NEW\VC\TOOLS\MSVC\14.29.30133\INCLUDE\XFACET
E:\PROG\MICROSOFT\NEW\VC\TOOLS\MSVC\14.29.30133\INCLUDE\XLOCINFO
E:\PROG\MICROSOFT\NEW\VC\TOOLS\MSVC\14.29.30133\INCLUDE\XLOCINFO.H
E:\PROG\MICROSOFT\NEW\VC\TOOLS\MSVC\14.29.30133\INCLUDE\CCTYPE
E:\WINDOWS KITS\10\INCLUDE\10.0.19041.0\UCRT\CTYPE.H
E:\PROG\MICROSOFT\NEW\VC\TOOLS\MSVC\14.29.30133\INCLUDE\CLOCALE
E:\WINDOWS KITS\10\INCLUDE\10.0.19041.0\UCRT\LOCALE.H
E:\PROG\MICROSOFT\NEW\VC\TOOLS\MSVC\14.29.30133\INCLUDE\STRING
